v 0.329689 0.272539 1.4516
v 0.353193 0.271307 1.44927
v 0.325332 0.280403 1.25054
v 0.314291 0.284806 1.29298
v 0.311375 0.288654 1.33139
v 0.314895 0.284403 1.28931
v 0.359263 0.272449 1.32894
v 0.358672 0.271983 1.35104
v 0.349026 0.27532 1.42123
v 0.348981 0.276167 1.42841
v 0.348767 0.275791 1.42482
v 0.320675 0.282007 1.2653
v 0.315161 0.291212 1.36703
v 0.358558 0.282807 1.65025
v 0.369947 0.285184 1.60775
v 0.332407 0.278347 1.46009
v 0.373164 0.287391 1.57653
v 0.354582 0.279892 1.45756
v 0.357062 0.282924 1.47172
v 0.361 0.286559 1.49211
v 0.367616 0.289821 1.52132
v 0.372972 0.288464 1.56203
v 0.372974 0.288446 1.56203
v 0.371071 0.289667 1.54247
v 0.369308 0.28492 1.61142
v 0.323908 0.276766 1.572
v 0.324424 0.275789 1.54991
v 0.334288 0.276678 1.47968
v 0.333503 0.277952 1.46539
v 0.332773 0.278215 1.46186
v 0.363339 0.283623 1.63547
v 0.334411 0.27737 1.47248
v 0.334589 0.277047 1.47608
v 0.36966 0.290125 1.53358
v 0.371747 0.289429 1.54771
v 0.369724 0.290041 1.53356
v 0.332337 0.281144 1.68091
v 0.332331 0.281161 1.68091
v 0.327114 0.280022 1.64969
v 0.354901 0.282309 1.6575
v 0.358579 0.282721 1.65025
v 0.373164 0.287373 1.57653
v 0.327341 0.280087 1.65138
v 0.330062 0.280761 1.66874
v 0.33459 0.276992 1.47609
v 0.341898 0.27663 1.22182
v 0.351211 0.275432 1.21995
v 0.351219 0.275448 1.21995
v 0.328911 0.279384 1.24331
v 0.325302 0.280319 1.25055
v 0.353449 0.275068 1.23213
v 0.312325 0.286411 1.30951
v 0.348761 0.275736 1.42481
v 0.349448 0.27472 1.41754
v 0.630138 0.212918 0.538382
v 0.637258 0.22161 0.487541
v 1.11469 0.232737 0.441477
v 0.629946 0.212826 0.539709
v 0.329689 0.272539 0.231825
v 0.353193 0.271307 0.229496
v 0.3525 0.210218 0.544795
v 0.629443 0.224783 0.539583
v 0.932127 0.236269 0.478263
v 1.11425 0.24318 0.441367
v 1.12201 0.240963 0.389446
v 1.11483 0.232787 0.440503
v 1.18742e-08 0.192446 0.463427
v 0.323862 0.20907 0.550486
v 1.18742e-08 0.231643 0.443427
v 1.18742e-08 0.213248 0.443427
v 0.319925 0.237001 1.47237
v 0.359177 0.234944 1.47237
v 0.365649 0.234605 1.46406
v 0.313453 0.23734 1.46406
v 0.316403 0.237186 1.43213
v 0.362699 0.234759 1.43213
v 0.352485 0.215267 1.39737
v 0.324523 0.216733 1.39737
v 0.359177 0.234944 0.208599
v 0.319925 0.237001 0.208599
v 0.313453 0.23734 0.216915
v 0.365649 0.234605 0.216915
v 0.316403 0.237186 0.248845
v 0.362699 0.234759 0.248845
v 0.324523 0.216733 0.283599
v 0.352485 0.215267 0.283599
v 0.325332 0.280403 0.0307659
v 0.314291 0.284806 0.0732023
v 0.311375 0.288654 0.111619
v 0.314895 0.284403 0.0695335
v 0.359263 0.272449 0.109163
v 0.358672 0.271983 0.131265
v 0.349026 0.27532 0.201457
v 0.348981 0.276167 0.208633
v 0.348767 0.275791 0.205048
v 0.320675 0.282007 0.045525
v 0.315161 0.291212 0.147254
v 0.358558 0.282807 0.430479
v 0.369947 0.285184 0.387972
v 0.373164 0.287391 0.356756
v 0.354582 0.279892 0.237785
v 0.357062 0.282924 0.251944
v 0.361 0.286559 0.272335
v 0.367616 0.289821 0.301545
v 0.372972 0.288464 0.342259
v 0.372974 0.288446 0.342258
v 0.371071 0.289667 0.3227
v 0.369308 0.28492 0.391648
v 0.369305 0.284919 0.391665
v 0.323908 0.276766 0.352225
v 0.324424 0.275789 0.330138
v 0.334288 0.276678 0.259902
v 0.332773 0.278215 0.24209
v 0.332407 0.278347 0.24032
v 0.363339 0.283623 0.415695
v 0.334411 0.27737 0.252711
v 0.334589 0.277047 0.256303
v 0.36966 0.290125 0.313804
v 0.371747 0.289429 0.327939
v 0.369724 0.290041 0.313791
v 0.332329 0.281147 0.461137
v 0.332337 0.281144 0.461135
v 0.332331 0.281161 0.461136
v 0.327114 0.280022 0.429912
v 0.354901 0.282309 0.437724
v 0.358579 0.282721 0.430473
v 0.373164 0.287373 0.356756
v 0.327341 0.280087 0.431602
v 0.330062 0.280761 0.448967
v 0.33459 0.276992 0.256315
v 0.35122 0.275435 0.000175834
v 0.351211 0.275432 0.000177741
v 0.351219 0.275448 0.000176072
v 0.311349 0.287953 0.104364
v 0.328911 0.279384 0.0235363
v 0.325302 0.280319 0.0307734
v 0.353449 0.275068 0.0123532
v 0.312325 0.286411 0.0897411
v 0.348761 0.275736 0.205037
v 0.349448 0.27472 0.197765
v 0.179274 0.215042 0.428386
v 0.179273 0.215047 0.428399
v 0.179273 0.215048 0.428384
v 0.169804 0.213302 0.428055
v 0.169799 0.21329 0.428091
v 0.0830857 0.208686 0.425104
v 0.0218772 0.234986 0.43384
v 0.0324596 0.237057 0.43545
