v 0.329715 0.27254 1.45185
v 0.329689 0.272539 1.4516
l 1 2
v 0.329689 0.272539 1.4516
v 0.353193 0.271307 1.44927
l 3 4
v 0.329653 0.272541 1.4499
v 0.329689 0.272539 1.4516
l 5 6
v 0.353193 0.271307 1.44927
v 0.353242 0.271323 1.45109
l 7 8
v 0.329689 0.272539 1.4516
v 0.353193 0.271307 1.44927
l 9 10
v 0.353193 0.271307 1.44927
v 0.353179 0.271308 1.44914
l 11 12
v 0.325332 0.280403 1.25054
v 0.323962 0.280805 1.25422
l 13 14
v 0.325332 0.280403 1.25054
v 0.323996 0.280864 1.25421
l 15 16
v 0.320675 0.282007 1.2653
v 0.325332 0.280403 1.25054
l 17 18
v 0.314291 0.284806 1.29298
v 0.314585 0.284621 1.29113
l 19 20
v 0.314291 0.284806 1.29298
v 0.316087 0.284056 1.28373
l 21 22
v 0.314291 0.284806 1.29298
v 0.314014 0.285007 1.29482
l 23 24
v 0.314291 0.284806 1.29298
v 0.316851 0.283633 1.28005
l 25 26
v 0.314291 0.284806 1.29298
v 0.314895 0.284403 1.28931
l 27 28
v 0.314291 0.284806 1.29298
v 0.316769 0.283497 1.28007
l 29 30
v 0.311322 0.288332 1.32791
v 0.311375 0.288654 1.33139
l 31 32
v 0.311375 0.288654 1.33139
v 0.311663 0.289299 1.33861
l 33 34
v 0.311375 0.288654 1.33139
v 0.311349 0.287933 1.32414
l 35 36
v 0.311349 0.287953 1.32414
v 0.311375 0.288654 1.33139
l 37 38
v 0.314895 0.284403 1.28931
v 0.314585 0.284621 1.29113
l 39 40
v 0.314291 0.284806 1.29298
v 0.314895 0.284403 1.28931
l 41 42
v 0.314895 0.284403 1.28931
v 0.314585 0.284604 1.29113
l 43 44
v 0.359263 0.272449 1.32894
v 0.358984 0.27226 1.34366
l 45 46
v 0.359263 0.272449 1.32894
v 0.359608 0.272771 1.31435
l 47 48
v 0.358914 0.272124 1.34365
v 0.359263 0.272449 1.32894
l 49 50
v 0.358759 0.271979 1.35019
v 0.358672 0.271983 1.35104
l 51 52
v 0.358984 0.27226 1.34366
v 0.358672 0.271983 1.35104
l 53 54
v 0.358914 0.272124 1.34365
v 0.358672 0.271983 1.35104
l 55 56
v 0.349026 0.27532 1.42123
v 0.349476 0.274803 1.41758
l 57 58
v 0.348767 0.275791 1.42482
v 0.349026 0.27532 1.42123
l 59 60
v 0.349026 0.27532 1.42123
v 0.348825 0.275496 1.423
l 61 62
v 0.349026 0.27532 1.42123
v 0.349448 0.27472 1.41754
l 63 64
v 0.348808 0.275516 1.42301
v 0.349026 0.27532 1.42123
l 65 66
v 0.349026 0.27532 1.42123
v 0.349441 0.274731 1.41756
l 67 68
v 0.348981 0.276167 1.42841
v 0.348767 0.275791 1.42482
l 69 70
v 0.349088 0.276355 1.43019
v 0.348981 0.276167 1.42841
l 71 72
v 0.348981 0.276167 1.42841
v 0.349052 0.276279 1.43018
l 73 74
v 0.348981 0.276167 1.42841
v 0.348761 0.275736 1.42481
l 75 76
v 0.348981 0.276167 1.42841
v 0.3488 0.275925 1.42662
l 77 78
v 0.348981 0.276167 1.42841
v 0.348767 0.275791 1.42482
l 79 80
v 0.348767 0.275791 1.42482
v 0.349026 0.27532 1.42123
l 81 82
v 0.348767 0.275791 1.42482
v 0.348808 0.275516 1.42301
l 83 84
v 0.323962 0.280805 1.25422
v 0.320675 0.282007 1.2653
l 85 86
v 0.320675 0.282007 1.2653
v 0.322837 0.281273 1.2579
l 87 88
v 0.320675 0.282007 1.2653
v 0.325332 0.280403 1.25054
l 89 90
v 0.315161 0.291212 1.36703
v 0.316296 0.291224 1.37406
l 91 92
v 0.313062 0.290529 1.35289
v 0.315161 0.291212 1.36703
l 93 94
v 0.315161 0.291212 1.36703
v 0.313142 0.290587 1.35288
l 95 96
v 0.317616 0.290988 1.38104
v 0.315161 0.291212 1.36703
l 97 98
v 0.315161 0.291212 1.36703
v 0.311815 0.289485 1.33858
l 99 100
v 0.358558 0.282807 1.65025
v 0.359957 0.282992 1.64657
l 101 102
v 0.358558 0.282807 1.65025
v 0.35993 0.283053 1.64658
l 103 104
v 0.363339 0.283623 1.63547
v 0.358558 0.282807 1.65025
l 105 106
v 0.369947 0.285184 1.60775
v 0.368093 0.284812 1.617
l 107 108
v 0.369637 0.285068 1.60959
v 0.369947 0.285184 1.60775
l 109 110
v 0.369947 0.285184 1.60775
v 0.370241 0.285318 1.6059
l 111 112
v 0.369947 0.285184 1.60775
v 0.368202 0.284613 1.61698
l 113 114
v 0.369947 0.285184 1.60775
v 0.367294 0.284545 1.62069
l 115 116
v 0.369947 0.285184 1.60775
v 0.368203 0.284595 1.61698
l 117 118
v 0.369308 0.28492 1.61142
v 0.369947 0.285184 1.60775
l 119 120
v 0.369947 0.285184 1.60775
v 0.367362 0.284401 1.62068
l 121 122
v 0.332041 0.278478 1.45832
v 0.332407 0.278347 1.46009
l 123 124
v 0.332407 0.278347 1.46009
v 0.332773 0.278215 1.46186
l 125 126
v 0.332407 0.278347 1.46009
v 0.332095 0.278401 1.45831
l 127 128
v 0.332103 0.278433 1.45831
v 0.332407 0.278347 1.46009
l 129 130
v 0.372375 0.286535 1.58805
v 0.373164 0.287391 1.57653
l 131 132
v 0.373164 0.287391 1.57653
v 0.373224 0.287669 1.57275
l 133 134
v 0.373164 0.287391 1.57653
v 0.372063 0.286315 1.59118
l 135 136
v 0.372972 0.288464 1.56203
v 0.373164 0.287391 1.57653
l 137 138
v 0.355209 0.280659 1.46114
v 0.354582 0.279892 1.45756
l 139 140
v 0.355081 0.280667 1.46107
v 0.354582 0.279892 1.45756
l 141 142
v 0.354582 0.279892 1.45756
v 0.354823 0.280291 1.45929
l 143 144
v 0.357062 0.282924 1.47172
v 0.355833 0.281421 1.4647
l 145 146
v 0.358262 0.28439 1.47857
v 0.357062 0.282924 1.47172
l 147 148
v 0.357062 0.282924 1.47172
v 0.357902 0.28426 1.47856
l 149 150
v 0.35808 0.284433 1.47849
v 0.357062 0.282924 1.47172
l 151 152
v 0.362553 0.287325 1.49896
v 0.361 0.286559 1.49211
l 153 154
v 0.361 0.286559 1.49211
v 0.359458 0.285799 1.4853
l 155 156
v 0.361 0.286559 1.49211
v 0.359448 0.285797 1.4853
l 157 158
v 0.367616 0.289821 1.52132
v 0.367943 0.289914 1.52303
l 159 160
v 0.367616 0.289821 1.52132
v 0.36726 0.289735 1.51955
l 161 162
v 0.369619 0.289732 1.53358
v 0.367616 0.289821 1.52132
l 163 164
v 0.36847 0.289783 1.52655
v 0.367616 0.289821 1.52132
l 165 166
v 0.373224 0.287669 1.57275
v 0.372972 0.288464 1.56203
l 167 168
v 0.371747 0.289429 1.54771
v 0.372972 0.288464 1.56203
l 169 170
v 0.372972 0.288464 1.56203
v 0.373164 0.287391 1.57653
l 171 172
v 0.371071 0.289667 1.54247
v 0.372972 0.288464 1.56203
l 173 174
v 0.373224 0.287669 1.57275
v 0.372974 0.288446 1.56203
l 175 176
v 0.371743 0.289315 1.54771
v 0.372974 0.288446 1.56203
l 177 178
v 0.372974 0.288446 1.56203
v 0.371071 0.289667 1.54247
l 179 180
v 0.372974 0.288446 1.56203
v 0.373164 0.287373 1.57653
l 181 182
v 0.370808 0.289767 1.54062
v 0.371071 0.289667 1.54247
l 183 184
v 0.371747 0.289429 1.54771
v 0.371071 0.289667 1.54247
l 185 186
v 0.371071 0.289667 1.54247
v 0.371743 0.289315 1.54771
l 187 188
v 0.371071 0.289667 1.54247
v 0.372972 0.288464 1.56203
l 189 190
v 0.372974 0.288446 1.56203
v 0.371071 0.289667 1.54247
l 191 192
v 0.369308 0.28492 1.61142
v 0.369637 0.285068 1.60959
l 193 194
v 0.369636 0.285051 1.60959
v 0.369308 0.28492 1.61142
l 195 196
v 0.369308 0.28492 1.61142
v 0.368959 0.284806 1.61328
l 197 198
v 0.369308 0.28492 1.61142
v 0.369947 0.285184 1.60775
l 199 200
v 0.323908 0.276766 1.572
v 0.32415 0.276248 1.55728
l 201 202
v 0.323908 0.276766 1.572
v 0.323612 0.277421 1.58658
l 203 204
v 0.324205 0.276105 1.5573
v 0.323908 0.276766 1.572
l 205 206
v 0.324338 0.275811 1.55076
v 0.324424 0.275789 1.54991
l 207 208
v 0.32415 0.276248 1.55728
v 0.324424 0.275789 1.54991
l 209 210
v 0.324205 0.276105 1.5573
v 0.324424 0.275789 1.54991
l 211 212
v 0.334288 0.276678 1.47968
v 0.333791 0.276286 1.48334
l 213 214
v 0.334589 0.277047 1.47608
v 0.334288 0.276678 1.47968
l 215 216
v 0.334504 0.276796 1.4779
v 0.334288 0.276678 1.47968
l 217 218
v 0.334523 0.276815 1.4779
v 0.334288 0.276678 1.47968
l 219 220
v 0.333139 0.278083 1.46363
v 0.333503 0.277952 1.46539
l 221 222
v 0.333503 0.277952 1.46539
v 0.333867 0.277821 1.46715
l 223 224
v 0.333906 0.277737 1.46715
v 0.333503 0.277952 1.46539
l 225 226
v 0.333503 0.277952 1.46539
v 0.333916 0.277747 1.46716
l 227 228
v 0.332407 0.278347 1.46009
v 0.332773 0.278215 1.46186
l 229 230
v 0.332773 0.278215 1.46186
v 0.333139 0.278083 1.46363
l 231 232
v 0.332511 0.278251 1.46007
v 0.332773 0.278215 1.46186
l 233 234
v 0.332519 0.27828 1.46007
v 0.332773 0.278215 1.46186
l 235 236
v 0.363339 0.283623 1.63547
v 0.359957 0.282992 1.64657
l 237 238
v 0.363339 0.283623 1.63547
v 0.361121 0.283266 1.64288
l 239 240
v 0.363339 0.283623 1.63547
v 0.358558 0.282807 1.65025
l 241 242
v 0.334323 0.277531 1.47069
v 0.334411 0.27737 1.47248
l 243 244
v 0.334411 0.27737 1.47248
v 0.334589 0.277047 1.47608
l 245 246
v 0.33435 0.277452 1.47071
v 0.334411 0.27737 1.47248
l 247 248
v 0.33459 0.276992 1.47609
v 0.334411 0.27737 1.47248
l 249 250
v 0.334367 0.277474 1.4707
v 0.334411 0.27737 1.47248
l 251 252
v 0.334568 0.277146 1.47428
v 0.334411 0.27737 1.47248
l 253 254
v 0.334411 0.27737 1.47248
v 0.334589 0.277047 1.47608
l 255 256
v 0.334589 0.277047 1.47608
v 0.334288 0.276678 1.47968
l 257 258
v 0.334589 0.277047 1.47608
v 0.334523 0.276815 1.4779
l 259 260
v 0.36966 0.290125 1.53358
v 0.368524 0.290109 1.52654
l 261 262
v 0.371693 0.28952 1.54772
v 0.36966 0.290125 1.53358
l 263 264
v 0.36966 0.290125 1.53358
v 0.371619 0.289586 1.54774
l 265 266
v 0.367181 0.289866 1.51957
v 0.36966 0.290125 1.53358
l 267 268
v 0.36966 0.290125 1.53358
v 0.372841 0.288648 1.56206
l 269 270
v 0.371747 0.289429 1.54771
v 0.370808 0.289767 1.54062
l 271 272
v 0.371747 0.289429 1.54771
v 0.371071 0.289667 1.54247
l 273 274
v 0.371747 0.289429 1.54771
v 0.372972 0.288464 1.56203
l 275 276
v 0.371747 0.289429 1.54771
v 0.36974 0.290003 1.53358
l 277 278
v 0.369724 0.290041 1.53356
v 0.37174 0.289448 1.54771
l 279 280
v 0.37172 0.289485 1.54772
v 0.369724 0.290041 1.53356
l 281 282
v 0.369724 0.290041 1.53356
v 0.372953 0.288522 1.56204
l 283 284
v 0.369724 0.290041 1.53356
v 0.372943 0.288541 1.56204
l 285 286
v 0.332337 0.281144 1.68091
v 0.332348 0.281141 1.68091
l 287 288
v 0.332331 0.281146 1.68091
v 0.332337 0.281144 1.68091
l 289 290
v 0.332337 0.281144 1.68091
v 0.332331 0.281161 1.68091
l 291 292
v 0.332337 0.281164 1.68091
v 0.332331 0.281161 1.68091
l 293 294
v 0.330062 0.280761 1.66874
v 0.332331 0.281161 1.68091
l 295 296
v 0.332331 0.281161 1.68091
v 0.332327 0.281156 1.68091
l 297 298
v 0.332337 0.281144 1.68091
v 0.332331 0.281161 1.68091
l 299 300
v 0.326676 0.279891 1.64629
v 0.327114 0.280022 1.64969
l 301 302
v 0.327227 0.280055 1.65053
v 0.327114 0.280022 1.64969
l 303 304
v 0.327341 0.280087 1.65138
v 0.327114 0.280022 1.64969
l 305 306
v 0.355229 0.282352 1.65693
v 0.354901 0.282309 1.6575
l 307 308
v 0.354901 0.282309 1.6575
v 0.35689 0.282483 1.65389
l 309 310
v 0.354901 0.282309 1.6575
v 0.358579 0.282721 1.65025
l 311 312
v 0.356889 0.282523 1.65389
v 0.358579 0.282721 1.65025
l 313 314
v 0.358579 0.282721 1.65025
v 0.359578 0.282883 1.64767
l 315 316
v 0.358579 0.282721 1.65025
v 0.35689 0.282483 1.65389
l 317 318
v 0.354901 0.282309 1.6575
v 0.358579 0.282721 1.65025
l 319 320
v 0.358579 0.282721 1.65025
v 0.361166 0.283141 1.64287
l 321 322
v 0.373224 0.287669 1.57275
v 0.373164 0.287373 1.57653
l 323 324
v 0.372375 0.286535 1.58805
v 0.373164 0.287373 1.57653
l 325 326
v 0.372974 0.288446 1.56203
v 0.373164 0.287373 1.57653
l 327 328
v 0.372063 0.286297 1.59118
v 0.373164 0.287373 1.57653
l 329 330
v 0.327341 0.280087 1.65138
v 0.327456 0.28012 1.65222
l 331 332
v 0.327341 0.280087 1.65138
v 0.327227 0.280055 1.65053
l 333 334
v 0.327341 0.280087 1.65138
v 0.327114 0.280022 1.64969
l 335 336
v 0.330044 0.280751 1.66874
v 0.330062 0.280761 1.66874
l 337 338
v 0.330062 0.280761 1.66874
v 0.332331 0.281161 1.68091
l 339 340
v 0.330062 0.280761 1.66874
v 0.330104 0.280707 1.66873
l 341 342
v 0.33459 0.276992 1.47609
v 0.334411 0.27737 1.47248
l 343 344
v 0.33459 0.276992 1.47609
v 0.334564 0.27714 1.47429
l 345 346
v 0.33459 0.276992 1.47609
v 0.334568 0.277146 1.47428
l 347 348
v 0.341898 0.27663 1.22182
v 0.341858 0.276668 1.22182
l 349 350
v 0.341898 0.27663 1.22182
v 0.341996 0.27703 1.2218
l 351 352
v 0.333553 0.277965 1.23611
v 0.341898 0.27663 1.22182
l 353 354
v 0.351211 0.275432 1.21995
v 0.351201 0.27543 1.21995
l 355 356
v 0.351218 0.275434 1.21995
v 0.351211 0.275432 1.21995
l 357 358
v 0.351211 0.275432 1.21995
v 0.351219 0.275448 1.21995
l 359 360
v 0.351214 0.275452 1.21995
v 0.351219 0.275448 1.21995
l 361 362
v 0.353449 0.275068 1.23213
v 0.351219 0.275448 1.21995
l 363 364
v 0.351219 0.275448 1.21995
v 0.351223 0.275443 1.21995
l 365 366
v 0.351211 0.275432 1.21995
v 0.351219 0.275448 1.21995
l 367 368
v 0.328911 0.279384 1.24331
v 0.328589 0.279472 1.24388
l 369 370
v 0.328911 0.279384 1.24331
v 0.326953 0.279835 1.24691
l 371 372
v 0.328911 0.279384 1.24331
v 0.325302 0.280319 1.25055
l 373 374
v 0.325302 0.280319 1.25055
v 0.326959 0.279875 1.24691
l 375 376
v 0.324327 0.280636 1.25312
v 0.325302 0.280319 1.25055
l 377 378
v 0.325302 0.280319 1.25055
v 0.326953 0.279835 1.24691
l 379 380
v 0.328911 0.279384 1.24331
v 0.325302 0.280319 1.25055
l 381 382
v 0.325302 0.280319 1.25055
v 0.322779 0.281154 1.25791
l 383 384
v 0.353473 0.275048 1.23213
v 0.353449 0.275068 1.23213
l 385 386
v 0.353449 0.275068 1.23213
v 0.351219 0.275448 1.21995
l 387 388
v 0.353401 0.275018 1.23214
v 0.353449 0.275068 1.23213
l 389 390
v 0.311713 0.287137 1.31684
v 0.312325 0.286411 1.30951
l 391 392
v 0.312325 0.286411 1.30951
v 0.3117 0.287177 1.31684
l 393 394
v 0.311365 0.287871 1.32413
v 0.312325 0.286411 1.30951
l 395 396
v 0.311358 0.287892 1.32414
v 0.312325 0.286411 1.30951
l 397 398
v 0.348981 0.276167 1.42841
v 0.348761 0.275736 1.42481
l 399 400
v 0.3488 0.275925 1.42662
v 0.348761 0.275736 1.42481
l 401 402
v 0.348804 0.275918 1.4266
v 0.348761 0.275736 1.42481
l 403 404
v 0.349026 0.27532 1.42123
v 0.349448 0.27472 1.41754
l 405 406
v 0.349448 0.27472 1.41754
v 0.349783 0.274443 1.4157
l 407 408
v 0.349448 0.27472 1.41754
v 0.349441 0.274731 1.41756
l 409 410
v 0.630138 0.212918 0.538382
v 0.631723 0.213731 0.527397
l 411 412
v 0.630138 0.212918 0.538382
v 0.630082 0.212859 0.538779
l 413 414
v 0.637258 0.22161 0.487541
v 0.630138 0.212918 0.538382
l 415 416
v 0.630138 0.212918 0.538382
v 0.630086 0.212893 0.538738
l 417 418
v 0.637326 0.221595 0.487082
v 0.637258 0.22161 0.487541
l 419 420
v 0.637382 0.221786 0.486653
v 0.637258 0.22161 0.487541
l 421 422
v 0.637258 0.22161 0.487541
v 0.630138 0.212918 0.538382
l 423 424
v 0.631669 0.223628 0.524836
v 0.637258 0.22161 0.487541
l 425 426
v 1.11469 0.232737 0.441477
v 1.1033 0.232257 0.443785
l 427 428
v 1.11469 0.232737 0.441477
v 1.11481 0.232766 0.440666
l 429 430
v 0.629946 0.212826 0.539709
v 1.11469 0.232737 0.441477
l 431 432
v 1.11469 0.232737 0.441477
v 1.11477 0.232765 0.440926
l 433 434
v 0.695734 0.215505 0.526377
v 0.629946 0.212826 0.539709
l 435 436
v 0.630082 0.212859 0.538779
v 0.629946 0.212826 0.539709
l 437 438
v 0.629946 0.212826 0.539709
v 1.11469 0.232737 0.441477
l 439 440
v 0.630086 0.212893 0.538738
v 0.629946 0.212826 0.539709
l 441 442
v 0.329715 0.27254 0.232074
v 0.329689 0.272539 0.231825
l 443 444
v 0.353193 0.271307 0.229496
v 0.329689 0.272539 0.231825
l 445 446
v 0.329689 0.272539 0.231825
v 0.329653 0.272541 0.230122
l 447 448
v 0.353193 0.271307 0.229496
v 0.353242 0.271323 0.231321
l 449 450
v 0.353193 0.271307 0.229496
v 0.329689 0.272539 0.231825
l 451 452
v 0.353179 0.271308 0.229369
v 0.353193 0.271307 0.229496
l 453 454
v 0.3525 0.210218 0.544795
v 0.538462 0.217646 0.507115
l 455 456
v 0.3525 0.210218 0.544795
v 0.3525 0.215756 0.544756
l 457 458
v 0.3525 0.210218 0.544795
v 0.3525 0.213272 0.59073
l 459 460
v 0.882518 0.234427 0.488313
v 0.629443 0.224783 0.539583
l 461 462
v 0.629443 0.224783 0.539583
v 0.637161 0.225767 0.48697
l 463 464
v 0.629443 0.224783 0.539583
v 0.631669 0.223628 0.524836
l 465 466
v 0.932127 0.236269 0.478263
v 0.629443 0.224783 0.539583
l 467 468
v 0.932127 0.236269 0.478263
v 0.882518 0.234427 0.488313
l 469 470
v 0.932127 0.236269 0.478263
v 1.11425 0.24318 0.441367
l 471 472
v 0.945489 0.236764 0.475557
v 0.932127 0.236269 0.478263
l 473 474
v 0.932127 0.236269 0.478263
v 0.629443 0.224783 0.539583
l 475 476
v 1.12192 0.245127 0.38882
v 1.11425 0.24318 0.441367
l 477 478
v 0.932127 0.236269 0.478263
v 1.11425 0.24318 0.441367
l 479 480
v 1.11425 0.24318 0.441367
v 1.04853 0.240609 0.454684
l 481 482
v 1.11464 0.243 0.438773
v 1.11425 0.24318 0.441367
l 483 484
v 1.1221 0.240959 0.388857
v 1.12201 0.240963 0.389446
l 485 486
v 1.12201 0.240963 0.389446
v 1.12214 0.241148 0.388502
l 487 488
v 1.12201 0.240963 0.389446
v 1.12145 0.241001 0.393242
l 489 490
v 1.11483 0.232787 0.440503
v 1.12201 0.240963 0.389446
l 491 492
v 1.11483 0.232787 0.440503
v 1.1201 0.235383 0.404031
l 493 494
v 1.11481 0.232766 0.440666
v 1.11483 0.232787 0.440503
l 495 496
v 1.11477 0.232765 0.440926
v 1.11483 0.232787 0.440503
l 497 498
v 1.11483 0.232787 0.440503
v 1.12201 0.240963 0.389446
l 499 500
v 1.18742e-08 0.190273 0.463427
v 1.18742e-08 0.192446 0.463427
l 501 502
v 1.18742e-08 0.192446 0.443427
v 1.18742e-08 0.192446 0.463427
l 503 504
v 1.18742e-08 0.192446 0.463427
v 0.00589268 0.193437 0.463427
l 505 506
v 0.304434 0.20826 0.553642
v 0.323862 0.20907 0.550486
l 507 508
v 0.324036 0.211064 0.550441
v 0.323862 0.20907 0.550486
l 509 510
v 0.324143 0.212283 0.598216
v 0.323862 0.20907 0.550486
l 511 512
v 1.18742e-08 0.252446 0.443427
v 1.18742e-08 0.231643 0.443427
l 513 514
v 1.18742e-08 0.231643 0.443427
v 1.18742e-08 0.231643 0.423427
l 515 516
v 0.000144484 0.231642 0.443427
v 1.18742e-08 0.231643 0.443427
l 517 518
v 1.18742e-08 0.213248 0.443427
v 1.18742e-08 0.192446 0.443427
l 519 520
v 1.18742e-08 0.213248 0.423427
v 1.18742e-08 0.213248 0.443427
l 521 522
v 1.18742e-08 0.213248 0.443427
v 0.000144484 0.213249 0.443427
l 523 524
v 0.320615 0.236965 1.47297
v 0.319925 0.237001 1.47237
l 525 526
v 0.314585 0.237281 1.47237
v 0.319925 0.237001 1.47237
l 527 528
v 0.319925 0.237001 1.47237
v 0.359177 0.234944 1.47237
l 529 530
v 0.319925 0.237001 1.47237
v 0.316984 0.237155 1.46933
l 531 532
v 0.359177 0.234944 1.47237
v 0.358487 0.23498 1.47297
l 533 534
v 0.359177 0.234944 1.47237
v 0.364517 0.234664 1.47237
l 535 536
v 0.319925 0.237001 1.47237
v 0.359177 0.234944 1.47237
l 537 538
v 0.362118 0.23479 1.46933
v 0.359177 0.234944 1.47237
l 539 540
v 0.364517 0.234664 1.47237
v 0.365649 0.234605 1.46406
l 541 542
v 0.365649 0.234605 1.46406
v 0.367234 0.234522 1.46046
l 543 544
v 0.365649 0.234605 1.46406
v 0.365064 0.234636 1.46512
l 545 546
v 0.367513 0.234507 1.45037
v 0.365649 0.234605 1.46406
l 547 548
v 0.313453 0.23734 1.46406
v 0.314585 0.237281 1.47237
l 549 550
v 0.311868 0.237423 1.46046
v 0.313453 0.23734 1.46406
l 551 552
v 0.314038 0.23731 1.46512
v 0.313453 0.23734 1.46406
l 553 554
v 0.311589 0.237438 1.45037
v 0.313453 0.23734 1.46406
l 555 556
v 0.316403 0.237186 1.43213
v 0.314038 0.23731 1.43562
l 557 558
v 0.32557 0.236705 1.39737
v 0.316403 0.237186 1.43213
l 559 560
v 0.316984 0.237155 1.43141
v 0.316403 0.237186 1.43213
l 561 562
v 0.316403 0.237186 1.43213
v 0.311589 0.237438 1.45037
l 563 564
v 0.365064 0.234636 1.43562
v 0.362699 0.234759 1.43213
l 565 566
v 0.362699 0.234759 1.43213
v 0.353532 0.23524 1.39737
l 567 568
v 0.362699 0.234759 1.43213
v 0.362118 0.23479 1.43141
l 569 570
v 0.367513 0.234507 1.45037
v 0.362699 0.234759 1.43213
l 571 572
v 0.351438 0.195295 1.39737
v 0.352485 0.215267 1.39737
l 573 574
v 0.352485 0.215267 1.39737
v 0.353532 0.23524 1.39737
l 575 576
v 0.352485 0.215267 1.39737
v 0.352504 0.216 1.39737
l 577 578
v 0.352292 0.213569 1.39737
v 0.352485 0.215267 1.39737
l 579 580
v 0.324523 0.216733 1.39737
v 0.323477 0.19676 1.39737
l 581 582
v 0.32557 0.236705 1.39737
v 0.324523 0.216733 1.39737
l 583 584
v 0.324717 0.218431 1.39737
v 0.324523 0.216733 1.39737
l 585 586
v 0.324523 0.216733 1.39737
v 0.324504 0.216 1.39737
l 587 588
v 0.358487 0.23498 0.208001
v 0.359177 0.234944 0.208599
l 589 590
v 0.364517 0.234664 0.208599
v 0.359177 0.234944 0.208599
l 591 592
v 0.359177 0.234944 0.208599
v 0.319925 0.237001 0.208599
l 593 594
v 0.359177 0.234944 0.208599
v 0.362118 0.23479 0.211637
l 595 596
v 0.319925 0.237001 0.208599
v 0.320615 0.236965 0.208001
l 597 598
v 0.319925 0.237001 0.208599
v 0.314585 0.237281 0.208599
l 599 600
v 0.359177 0.234944 0.208599
v 0.319925 0.237001 0.208599
l 601 602
v 0.316984 0.237155 0.211637
v 0.319925 0.237001 0.208599
l 603 604
v 0.314585 0.237281 0.208599
v 0.313453 0.23734 0.216915
l 605 606
v 0.313453 0.23734 0.216915
v 0.311868 0.237423 0.22051
l 607 608
v 0.313453 0.23734 0.216915
v 0.314038 0.23731 0.215849
l 609 610
v 0.311589 0.237438 0.230599
v 0.313453 0.23734 0.216915
l 611 612
v 0.365649 0.234605 0.216915
v 0.364517 0.234664 0.208599
l 613 614
v 0.367234 0.234522 0.22051
v 0.365649 0.234605 0.216915
l 615 616
v 0.365064 0.234636 0.215849
v 0.365649 0.234605 0.216915
l 617 618
v 0.367513 0.234507 0.230599
v 0.365649 0.234605 0.216915
l 619 620
v 0.314038 0.23731 0.245349
v 0.316403 0.237186 0.248845
l 621 622
v 0.316403 0.237186 0.248845
v 0.32557 0.236705 0.283599
l 623 624
v 0.316403 0.237186 0.248845
v 0.316984 0.237155 0.249561
l 625 626
v 0.311589 0.237438 0.230599
v 0.316403 0.237186 0.248845
l 627 628
v 0.362699 0.234759 0.248845
v 0.365064 0.234636 0.245349
l 629 630
v 0.353532 0.23524 0.283599
v 0.362699 0.234759 0.248845
l 631 632
v 0.362118 0.23479 0.249561
v 0.362699 0.234759 0.248845
l 633 634
v 0.362699 0.234759 0.248845
v 0.367513 0.234507 0.230599
l 635 636
v 0.324523 0.216733 0.283599
v 0.32557 0.236705 0.283599
l 637 638
v 0.323477 0.19676 0.283599
v 0.324523 0.216733 0.283599
l 639 640
v 0.324523 0.216733 0.283599
v 0.324717 0.218431 0.283599
l 641 642
v 0.324504 0.216 0.283599
v 0.324523 0.216733 0.283599
l 643 644
v 0.352485 0.215267 0.283599
v 0.351438 0.195295 0.283599
l 645 646
v 0.353532 0.23524 0.283599
v 0.352485 0.215267 0.283599
l 647 648
v 0.352504 0.216 0.283599
v 0.352485 0.215267 0.283599
l 649 650
v 0.352485 0.215267 0.283599
v 0.352292 0.213569 0.283599
l 651 652
v 0.325332 0.280403 0.0307659
v 0.323962 0.280805 0.0344415
l 653 654
v 0.325332 0.280403 0.0307659
v 0.323996 0.280864 0.0344348
l 655 656
v 0.320675 0.282007 0.045525
v 0.325332 0.280403 0.0307659
l 657 658
v 0.314291 0.284806 0.0732023
v 0.314585 0.284621 0.0713601
l 659 660
v 0.314291 0.284806 0.0732023
v 0.316087 0.284056 0.063958
l 661 662
v 0.314291 0.284806 0.0732023
v 0.314014 0.285007 0.0750437
l 663 664
v 0.314291 0.284806 0.0732023
v 0.314895 0.284403 0.0695335
l 665 666
v 0.314291 0.284806 0.0732023
v 0.316769 0.283497 0.0602921
l 667 668
v 0.311322 0.288332 0.108139
v 0.311375 0.288654 0.111619
l 669 670
v 0.311375 0.288654 0.111619
v 0.311663 0.289299 0.118836
l 671 672
v 0.311375 0.288654 0.111619
v 0.311349 0.287933 0.104364
l 673 674
v 0.311349 0.287953 0.104364
v 0.311375 0.288654 0.111619
l 675 676
v 0.314895 0.284403 0.0695335
v 0.314585 0.284621 0.0713601
l 677 678
v 0.315228 0.2842 0.0676898
v 0.314895 0.284403 0.0695335
l 679 680
v 0.314291 0.284806 0.0732023
v 0.314895 0.284403 0.0695335
l 681 682
v 0.359263 0.272449 0.109163
v 0.358984 0.27226 0.123886
l 683 684
v 0.359263 0.272449 0.109163
v 0.359608 0.272771 0.0945743
l 685 686
v 0.358914 0.272124 0.123877
v 0.359263 0.272449 0.109163
l 687 688
v 0.358759 0.271979 0.13042
v 0.358672 0.271983 0.131265
l 689 690
v 0.358984 0.27226 0.123886
v 0.358672 0.271983 0.131265
l 691 692
v 0.358914 0.272124 0.123877
v 0.358672 0.271983 0.131265
l 693 694
v 0.349026 0.27532 0.201457
v 0.349476 0.274803 0.197802
l 695 696
v 0.348767 0.275791 0.205048
v 0.349026 0.27532 0.201457
l 697 698
v 0.349026 0.27532 0.201457
v 0.348825 0.275496 0.203228
l 699 700
v 0.349026 0.27532 0.201457
v 0.349448 0.27472 0.197765
l 701 702
v 0.348808 0.275516 0.203232
v 0.349026 0.27532 0.201457
l 703 704
v 0.348981 0.276167 0.208633
v 0.348767 0.275791 0.205048
l 705 706
v 0.349088 0.276355 0.210419
v 0.348981 0.276167 0.208633
l 707 708
v 0.348981 0.276167 0.208633
v 0.349052 0.276279 0.210409
l 709 710
v 0.348981 0.276167 0.208633
v 0.348761 0.275736 0.205037
l 711 712
v 0.348981 0.276167 0.208633
v 0.3488 0.275925 0.206846
l 713 714
v 0.348981 0.276167 0.208633
v 0.348767 0.275791 0.205048
l 715 716
v 0.348767 0.275791 0.205048
v 0.349026 0.27532 0.201457
l 717 718
v 0.348767 0.275791 0.205048
v 0.348808 0.275516 0.203232
l 719 720
v 0.323962 0.280805 0.0344415
v 0.320675 0.282007 0.045525
l 721 722
v 0.320675 0.282007 0.045525
v 0.322837 0.281273 0.0381265
l 723 724
v 0.320675 0.282007 0.045525
v 0.325332 0.280403 0.0307659
l 725 726
v 0.315161 0.291212 0.147254
v 0.316296 0.291224 0.154289
l 727 728
v 0.313062 0.290529 0.133121
v 0.315161 0.291212 0.147254
l 729 730
v 0.315161 0.291212 0.147254
v 0.313142 0.290587 0.133105
l 731 732
v 0.317616 0.290988 0.161268
v 0.315161 0.291212 0.147254
l 733 734
v 0.315161 0.291212 0.147254
v 0.311815 0.289485 0.118806
l 735 736
v 0.358558 0.282807 0.430479
v 0.359957 0.282992 0.426797
l 737 738
v 0.358558 0.282807 0.430479
v 0.35993 0.283053 0.426802
l 739 740
v 0.363339 0.283623 0.415695
v 0.358558 0.282807 0.430479
l 741 742
v 0.369947 0.285184 0.387972
v 0.368093 0.284812 0.397228
l 743 744
v 0.369637 0.285068 0.389818
v 0.369947 0.285184 0.387972
l 745 746
v 0.369947 0.285184 0.387972
v 0.370241 0.285318 0.386128
l 747 748
v 0.369947 0.285184 0.387972
v 0.368202 0.284613 0.397206
l 749 750
v 0.369947 0.285184 0.387972
v 0.368203 0.284595 0.397206
l 751 752
v 0.369308 0.28492 0.391648
v 0.369947 0.285184 0.387972
l 753 754
v 0.369947 0.285184 0.387972
v 0.367362 0.284401 0.400904
l 755 756
v 0.372375 0.286535 0.368281
v 0.373164 0.287391 0.356756
l 757 758
v 0.373164 0.287391 0.356756
v 0.373224 0.287669 0.352974
l 759 760
v 0.373164 0.287391 0.356756
v 0.372063 0.286315 0.371403
l 761 762
v 0.372972 0.288464 0.342259
v 0.373164 0.287391 0.356756
l 763 764
v 0.355209 0.280659 0.241366
v 0.354582 0.279892 0.237785
l 765 766
v 0.355081 0.280667 0.241301
v 0.354582 0.279892 0.237785
l 767 768
v 0.354582 0.279892 0.237785
v 0.354823 0.280291 0.239516
l 769 770
v 0.357062 0.282924 0.251944
v 0.355833 0.281421 0.244924
l 771 772
v 0.358262 0.28439 0.258795
v 0.357062 0.282924 0.251944
l 773 774
v 0.357062 0.282924 0.251944
v 0.357902 0.28426 0.258783
l 775 776
v 0.35808 0.284433 0.258717
v 0.357062 0.282924 0.251944
l 777 778
v 0.362553 0.287325 0.27919
v 0.361 0.286559 0.272335
l 779 780
v 0.361 0.286559 0.272335
v 0.359458 0.285799 0.265527
l 781 782
v 0.361 0.286559 0.272335
v 0.359448 0.285797 0.265528
l 783 784
v 0.367616 0.289821 0.301545
v 0.367943 0.289914 0.303261
l 785 786
v 0.367616 0.289821 0.301545
v 0.36726 0.289735 0.299779
l 787 788
v 0.369619 0.289732 0.313806
v 0.367616 0.289821 0.301545
l 789 790
v 0.36847 0.289783 0.306774
v 0.367616 0.289821 0.301545
l 791 792
v 0.373224 0.287669 0.352974
v 0.372972 0.288464 0.342259
l 793 794
v 0.371747 0.289429 0.327939
v 0.372972 0.288464 0.342259
l 795 796
v 0.372972 0.288464 0.342259
v 0.373164 0.287391 0.356756
l 797 798
v 0.371071 0.289667 0.3227
v 0.372972 0.288464 0.342259
l 799 800
v 0.373224 0.287669 0.352974
v 0.372974 0.288446 0.342258
l 801 802
v 0.371743 0.289315 0.32794
v 0.372974 0.288446 0.342258
l 803 804
v 0.372974 0.288446 0.342258
v 0.371071 0.289667 0.3227
l 805 806
v 0.372974 0.288446 0.342258
v 0.373164 0.287373 0.356756
l 807 808
v 0.370808 0.289767 0.320846
v 0.371071 0.289667 0.3227
l 809 810
v 0.371747 0.289429 0.327939
v 0.371071 0.289667 0.3227
l 811 812
v 0.371071 0.289667 0.3227
v 0.371743 0.289315 0.32794
l 813 814
v 0.371071 0.289667 0.3227
v 0.372972 0.288464 0.342259
l 815 816
v 0.372974 0.288446 0.342258
v 0.371071 0.289667 0.3227
l 817 818
v 0.369308 0.28492 0.391648
v 0.369637 0.285068 0.389818
l 819 820
v 0.369308 0.28492 0.391648
v 0.369305 0.284919 0.391665
l 821 822
v 0.369636 0.285051 0.389818
v 0.369308 0.28492 0.391648
l 823 824
v 0.369308 0.28492 0.391648
v 0.368959 0.284806 0.393511
l 825 826
v 0.369308 0.28492 0.391648
v 0.369947 0.285184 0.387972
l 827 828
v 0.369305 0.284919 0.391665
v 0.368959 0.284806 0.393511
l 829 830
v 0.369308 0.28492 0.391648
v 0.369305 0.284919 0.391665
l 831 832
v 0.369305 0.284919 0.391665
v 0.369636 0.285051 0.389818
l 833 834
v 0.323908 0.276766 0.352225
v 0.32415 0.276248 0.33751
l 835 836
v 0.323908 0.276766 0.352225
v 0.323612 0.277421 0.366804
l 837 838
v 0.324205 0.276105 0.337522
v 0.323908 0.276766 0.352225
l 839 840
v 0.324338 0.275811 0.330983
v 0.324424 0.275789 0.330138
l 841 842
v 0.32415 0.276248 0.33751
v 0.324424 0.275789 0.330138
l 843 844
v 0.324205 0.276105 0.337522
v 0.324424 0.275789 0.330138
l 845 846
v 0.334288 0.276678 0.259902
v 0.333791 0.276286 0.263567
l 847 848
v 0.334589 0.277047 0.256303
v 0.334288 0.276678 0.259902
l 849 850
v 0.334504 0.276796 0.258128
v 0.334288 0.276678 0.259902
l 851 852
v 0.334523 0.276815 0.258125
v 0.334288 0.276678 0.259902
l 853 854
v 0.332773 0.278215 0.24209
v 0.333139 0.278083 0.243857
l 855 856
v 0.332407 0.278347 0.24032
v 0.332773 0.278215 0.24209
l 857 858
v 0.332511 0.278251 0.2403
v 0.332773 0.278215 0.24209
l 859 860
v 0.332519 0.27828 0.240298
v 0.332773 0.278215 0.24209
l 861 862
v 0.332407 0.278347 0.24032
v 0.332773 0.278215 0.24209
l 863 864
v 0.332041 0.278478 0.238548
v 0.332407 0.278347 0.24032
l 865 866
v 0.332407 0.278347 0.24032
v 0.332095 0.278401 0.238538
l 867 868
v 0.332103 0.278433 0.238536
v 0.332407 0.278347 0.24032
l 869 870
v 0.363339 0.283623 0.415695
v 0.359957 0.282992 0.426797
l 871 872
v 0.363339 0.283623 0.415695
v 0.361121 0.283266 0.423104
l 873 874
v 0.363339 0.283623 0.415695
v 0.358558 0.282807 0.430479
l 875 876
v 0.334323 0.277531 0.250921
v 0.334411 0.27737 0.252711
l 877 878
v 0.334411 0.27737 0.252711
v 0.334589 0.277047 0.256303
l 879 880
v 0.33435 0.277452 0.250933
v 0.334411 0.27737 0.252711
l 881 882
v 0.33459 0.276992 0.256315
v 0.334411 0.27737 0.252711
l 883 884
v 0.334367 0.277474 0.25093
v 0.334411 0.27737 0.252711
l 885 886
v 0.334568 0.277146 0.254503
v 0.334411 0.27737 0.252711
l 887 888
v 0.334411 0.27737 0.252711
v 0.334589 0.277047 0.256303
l 889 890
v 0.334589 0.277047 0.256303
v 0.334288 0.276678 0.259902
l 891 892
v 0.334589 0.277047 0.256303
v 0.334523 0.276815 0.258125
l 893 894
v 0.36966 0.290125 0.313804
v 0.368524 0.290109 0.306769
l 895 896
v 0.371693 0.28952 0.32795
v 0.36966 0.290125 0.313804
l 897 898
v 0.36966 0.290125 0.313804
v 0.371619 0.289586 0.327965
l 899 900
v 0.367181 0.289866 0.299795
v 0.36966 0.290125 0.313804
l 901 902
v 0.36966 0.290125 0.313804
v 0.372841 0.288648 0.342285
l 903 904
v 0.371747 0.289429 0.327939
v 0.370808 0.289767 0.320846
l 905 906
v 0.371747 0.289429 0.327939
v 0.371071 0.289667 0.3227
l 907 908
v 0.371747 0.289429 0.327939
v 0.372972 0.288464 0.342259
l 909 910
v 0.371747 0.289429 0.327939
v 0.36974 0.290003 0.313807
l 911 912
v 0.369724 0.290041 0.313791
v 0.37174 0.289448 0.327941
l 913 914
v 0.37172 0.289485 0.327945
v 0.369724 0.290041 0.313791
l 915 916
v 0.369724 0.290041 0.313791
v 0.372953 0.288522 0.342263
l 917 918
v 0.369724 0.290041 0.313791
v 0.372943 0.288541 0.342265
l 919 920
v 0.332337 0.281144 0.461135
v 0.332329 0.281147 0.461137
l 921 922
v 0.332329 0.281147 0.461137
v 0.332331 0.281146 0.461136
l 923 924
v 0.332326 0.281149 0.461137
v 0.332329 0.281147 0.461137
l 925 926
v 0.332337 0.281144 0.461135
v 0.332329 0.281147 0.461137
l 927 928
v 0.332331 0.281146 0.461136
v 0.332337 0.281144 0.461135
l 929 930
v 0.332337 0.281144 0.461135
v 0.332348 0.281141 0.461133
l 931 932
v 0.332337 0.281144 0.461135
v 0.332331 0.281161 0.461136
l 933 934
v 0.332337 0.281164 0.461135
v 0.332331 0.281161 0.461136
l 935 936
v 0.332331 0.281161 0.461136
v 0.332327 0.281156 0.461137
l 937 938
v 0.330062 0.280761 0.448967
v 0.332331 0.281161 0.461136
l 939 940
v 0.332337 0.281144 0.461135
v 0.332331 0.281161 0.461136
l 941 942
v 0.326676 0.279891 0.426516
v 0.327114 0.280022 0.429912
l 943 944
v 0.327227 0.280055 0.430758
v 0.327114 0.280022 0.429912
l 945 946
v 0.327341 0.280087 0.431602
v 0.327114 0.280022 0.429912
l 947 948
v 0.355229 0.282352 0.437157
v 0.354901 0.282309 0.437724
l 949 950
v 0.354901 0.282309 0.437724
v 0.35689 0.282483 0.434116
l 951 952
v 0.354901 0.282309 0.437724
v 0.358579 0.282721 0.430473
l 953 954
v 0.356889 0.282523 0.434117
v 0.358579 0.282721 0.430473
l 955 956
v 0.358579 0.282721 0.430473
v 0.359578 0.282883 0.427897
l 957 958
v 0.358579 0.282721 0.430473
v 0.35689 0.282483 0.434116
l 959 960
v 0.354901 0.282309 0.437724
v 0.358579 0.282721 0.430473
l 961 962
v 0.358579 0.282721 0.430473
v 0.361166 0.283141 0.423096
l 963 964
v 0.373224 0.287669 0.352974
v 0.373164 0.287373 0.356756
l 965 966
v 0.372375 0.286535 0.368281
v 0.373164 0.287373 0.356756
l 967 968
v 0.372974 0.288446 0.342258
v 0.373164 0.287373 0.356756
l 969 970
v 0.372063 0.286297 0.371404
v 0.373164 0.287373 0.356756
l 971 972
v 0.327341 0.280087 0.431602
v 0.327227 0.280055 0.430758
l 973 974
v 0.327341 0.280087 0.431602
v 0.327456 0.28012 0.432442
l 975 976
v 0.327341 0.280087 0.431602
v 0.327114 0.280022 0.429912
l 977 978
v 0.330044 0.280751 0.448962
v 0.330062 0.280761 0.448967
l 979 980
v 0.330062 0.280761 0.448967
v 0.332331 0.281161 0.461136
l 981 982
v 0.330062 0.280761 0.448967
v 0.330104 0.280707 0.448959
l 983 984
v 0.33459 0.276992 0.256315
v 0.334411 0.27737 0.252711
l 985 986
v 0.33459 0.276992 0.256315
v 0.334564 0.27714 0.254517
l 987 988
v 0.33459 0.276992 0.256315
v 0.334568 0.277146 0.254503
l 989 990
v 0.351211 0.275432 0.000177741
v 0.35122 0.275435 0.000175834
l 991 992
v 0.35122 0.275435 0.000175834
v 0.351218 0.275434 0.000176311
l 993 994
v 0.351223 0.275436 0.000175357
v 0.35122 0.275435 0.000175834
l 995 996
v 0.351211 0.275432 0.000177741
v 0.35122 0.275435 0.000175834
l 997 998
v 0.351218 0.275434 0.000176311
v 0.351211 0.275432 0.000177741
l 999 1000
v 0.351211 0.275432 0.000177741
v 0.351201 0.27543 0.000179768
l 1001 1002
v 0.351223 0.275436 0.000175357
v 0.351211 0.275432 0.000177741
l 1003 1004
v 0.351211 0.275432 0.000177741
v 0.351219 0.275448 0.000176072
l 1005 1006
v 0.351214 0.275452 0.000177145
v 0.351219 0.275448 0.000176072
l 1007 1008
v 0.351219 0.275448 0.000176072
v 0.351223 0.275443 0.000175238
l 1009 1010
v 0.353449 0.275068 0.0123532
v 0.351219 0.275448 0.000176072
l 1011 1012
v 0.351211 0.275432 0.000177741
v 0.351219 0.275448 0.000176072
l 1013 1014
v 0.311322 0.288332 0.108139
v 0.311349 0.287953 0.104364
l 1015 1016
v 0.311349 0.287953 0.104364
v 0.311697 0.287198 0.0970681
l 1017 1018
v 0.311349 0.287953 0.104364
v 0.311375 0.288654 0.111619
l 1019 1020
v 0.311698 0.287196 0.0970486
v 0.311349 0.287953 0.104364
l 1021 1022
v 0.328911 0.279384 0.0235363
v 0.328589 0.279472 0.0241019
l 1023 1024
v 0.328911 0.279384 0.0235363
v 0.326953 0.279835 0.0271372
l 1025 1026
v 0.328911 0.279384 0.0235363
v 0.325302 0.280319 0.0307734
l 1027 1028
v 0.325302 0.280319 0.0307734
v 0.326959 0.279875 0.0271362
l 1029 1030
v 0.324327 0.280636 0.0333441
v 0.325302 0.280319 0.0307734
l 1031 1032
v 0.325302 0.280319 0.0307734
v 0.326953 0.279835 0.0271372
l 1033 1034
v 0.328911 0.279384 0.0235363
v 0.325302 0.280319 0.0307734
l 1035 1036
v 0.325302 0.280319 0.0307734
v 0.322779 0.281154 0.0381376
l 1037 1038
v 0.353473 0.275048 0.0123594
v 0.353449 0.275068 0.0123532
l 1039 1040
v 0.353449 0.275068 0.0123532
v 0.351219 0.275448 0.000176072
l 1041 1042
v 0.353401 0.275018 0.0123627
v 0.353449 0.275068 0.0123532
l 1043 1044
v 0.311713 0.287137 0.097065
v 0.312325 0.286411 0.0897411
l 1045 1046
v 0.312325 0.286411 0.0897411
v 0.3117 0.287177 0.0970675
l 1047 1048
v 0.311365 0.287871 0.104361
v 0.312325 0.286411 0.0897411
l 1049 1050
v 0.311358 0.287892 0.104362
v 0.312325 0.286411 0.0897411
l 1051 1052
v 0.348981 0.276167 0.208633
v 0.348761 0.275736 0.205037
l 1053 1054
v 0.3488 0.275925 0.206846
v 0.348761 0.275736 0.205037
l 1055 1056
v 0.348804 0.275918 0.206831
v 0.348761 0.275736 0.205037
l 1057 1058
v 0.349026 0.27532 0.201457
v 0.349448 0.27472 0.197765
l 1059 1060
v 0.349448 0.27472 0.197765
v 0.349783 0.274443 0.195931
l 1061 1062
v 0.349448 0.27472 0.197765
v 0.349441 0.274731 0.197784
l 1063 1064
v 0.179274 0.21504 0.428388
v 0.179274 0.215042 0.428386
l 1065 1066
v 0.179274 0.215042 0.428386
v 0.179273 0.215044 0.428385
l 1067 1068
v 0.179274 0.215042 0.428386
v 0.179273 0.215048 0.428384
l 1069 1070
v 0.179271 0.215055 0.428404
v 0.179273 0.215047 0.428399
l 1071 1072
v 0.179273 0.215047 0.428399
v 0.179274 0.215042 0.428396
l 1073 1074
v 0.179273 0.215047 0.428399
v 0.169799 0.21329 0.428091
l 1075 1076
v 0.179273 0.215048 0.428384
v 0.179273 0.215047 0.428399
l 1077 1078
v 0.179273 0.215048 0.428384
v 0.179272 0.215052 0.428383
l 1079 1080
v 0.179273 0.215048 0.428384
v 0.169799 0.21329 0.428091
l 1081 1082
v 0.179273 0.215044 0.428385
v 0.179273 0.215048 0.428384
l 1083 1084
v 0.179274 0.215042 0.428386
v 0.179273 0.215048 0.428384
l 1085 1086
v 0.179273 0.215048 0.428384
v 0.179273 0.215047 0.428399
l 1087 1088
v 0.169804 0.213302 0.428055
v 0.169798 0.213273 0.428064
l 1089 1090
v 0.169804 0.213302 0.428055
v 0.179272 0.215052 0.428383
l 1091 1092
v 0.169804 0.213302 0.428055
v 0.169799 0.21329 0.428091
l 1093 1094
v 0.169799 0.21329 0.428091
v 0.169797 0.213279 0.428083
l 1095 1096
v 0.179273 0.215048 0.428384
v 0.169799 0.21329 0.428091
l 1097 1098
v 0.179273 0.215047 0.428399
v 0.169799 0.21329 0.428091
l 1099 1100
v 0.169804 0.213302 0.428055
v 0.169799 0.21329 0.428091
l 1101 1102
v 0.0945198 0.208156 0.425487
v 0.0830857 0.208686 0.425104
l 1103 1104
v 0.0830857 0.208686 0.425104
v 0.0715977 0.209529 0.424729
l 1105 1106
v 0.0715938 0.209548 0.424753
v 0.0830857 0.208686 0.425104
l 1107 1108
v 0.0324596 0.237057 0.43545
v 0.0218772 0.234986 0.43384
l 1109 1110
v 0.0218772 0.234986 0.43384
v 0.027185 0.235878 0.434611
l 1111 1112
v 0.0271842 0.235881 0.434654
v 0.0218772 0.234986 0.43384
l 1113 1114
v 0.0324596 0.237057 0.43545
v 0.0377547 0.238346 0.436179
l 1115 1116
v 0.0324596 0.237057 0.43545
v 0.0218772 0.234986 0.43384
l 1117 1118
v 0.0324596 0.237057 0.43545
v 0.0430998 0.239521 0.436757
l 1119 1120
v 0.0271842 0.235881 0.434654
v 0.0324596 0.237057 0.43545
l 1121 1122
v 0.0324596 0.237057 0.43545
v 0.027185 0.235878 0.434611
l 1123 1124
